<?xml version="1.0" encoding="UTF-8" standalone="no"?>
<!DOCTYPE svg PUBLIC "-//W3C//DTD SVG 1.1//EN"
 "http://www.w3.org/Graphics/SVG/1.1/DTD/svg11.dtd">
<!-- Generated by graphviz version 2.38.0 (20140413.2041)
 -->
<!-- Title: snakemake_dag Pages: 1 -->
<svg width="260pt" height="548pt"
 viewBox="0.00 0.00 260.00 548.00" xmlns="http://www.w3.org/2000/svg" xmlns:xlink="http://www.w3.org/1999/xlink">
<g id="graph0" class="graph" transform="scale(1 1) rotate(0) translate(4 544)">
<title>snakemake_dag</title>
<polygon fill="white" stroke="none" points="-4,4 -4,-544 256,-544 256,4 -4,4"/>
<!-- 0 -->
<g id="node1" class="node"><title>0</title>
<path fill="none" stroke="#97d856" stroke-width="2" d="M240,-324C240,-324 12,-324 12,-324 6,-324 0,-318 0,-312 0,-312 0,-300 0,-300 0,-294 6,-288 12,-288 12,-288 240,-288 240,-288 246,-288 252,-294 252,-300 252,-300 252,-312 252,-312 252,-318 246,-324 240,-324"/>
<text text-anchor="middle" x="126" y="-303.5" font-family="sans" font-size="10.00">RetrieveAccessionNumbersFromMappedBamFiles</text>
</g>
<!-- 7 -->
<g id="node8" class="node"><title>7</title>
<path fill="none" stroke="#569ad8" stroke-width="2" d="M225.5,-252C225.5,-252 26.5,-252 26.5,-252 20.5,-252 14.5,-246 14.5,-240 14.5,-240 14.5,-228 14.5,-228 14.5,-222 20.5,-216 26.5,-216 26.5,-216 225.5,-216 225.5,-216 231.5,-216 237.5,-222 237.5,-228 237.5,-228 237.5,-240 237.5,-240 237.5,-246 231.5,-252 225.5,-252"/>
<text text-anchor="middle" x="126" y="-231.5" font-family="sans" font-size="10.00">ConvertAccessionNumberToScientificName</text>
</g>
<!-- 0&#45;&gt;7 -->
<g id="edge7" class="edge"><title>0&#45;&gt;7</title>
<path fill="none" stroke="grey" stroke-width="2" d="M126,-287.697C126,-279.983 126,-270.712 126,-262.112"/>
<polygon fill="grey" stroke="grey" stroke-width="2" points="129.5,-262.104 126,-252.104 122.5,-262.104 129.5,-262.104"/>
</g>
<!-- 1 -->
<g id="node2" class="node"><title>1</title>
<path fill="none" stroke="#d85656" stroke-width="2" d="M168.5,-468C168.5,-468 83.5,-468 83.5,-468 77.5,-468 71.5,-462 71.5,-456 71.5,-456 71.5,-444 71.5,-444 71.5,-438 77.5,-432 83.5,-432 83.5,-432 168.5,-432 168.5,-432 174.5,-432 180.5,-438 180.5,-444 180.5,-444 180.5,-456 180.5,-456 180.5,-462 174.5,-468 168.5,-468"/>
<text text-anchor="middle" x="126" y="-447.5" font-family="sans" font-size="10.00">ConvertSamToBam</text>
</g>
<!-- 2 -->
<g id="node3" class="node"><title>2</title>
<path fill="none" stroke="#59d856" stroke-width="2" d="M214,-396C214,-396 38,-396 38,-396 32,-396 26,-390 26,-384 26,-384 26,-372 26,-372 26,-366 32,-360 38,-360 38,-360 214,-360 214,-360 220,-360 226,-366 226,-372 226,-372 226,-384 226,-384 226,-390 220,-396 214,-396"/>
<text text-anchor="middle" x="126" y="-375.5" font-family="sans" font-size="10.00">RemoveAlignmentFailurefromBamFiles</text>
</g>
<!-- 1&#45;&gt;2 -->
<g id="edge3" class="edge"><title>1&#45;&gt;2</title>
<path fill="none" stroke="grey" stroke-width="2" d="M126,-431.697C126,-423.983 126,-414.712 126,-406.112"/>
<polygon fill="grey" stroke="grey" stroke-width="2" points="129.5,-406.104 126,-396.104 122.5,-406.104 129.5,-406.104"/>
</g>
<!-- 2&#45;&gt;0 -->
<g id="edge1" class="edge"><title>2&#45;&gt;0</title>
<path fill="none" stroke="grey" stroke-width="2" d="M126,-359.697C126,-351.983 126,-342.712 126,-334.112"/>
<polygon fill="grey" stroke="grey" stroke-width="2" points="129.5,-334.104 126,-324.104 122.5,-334.104 129.5,-334.104"/>
</g>
<!-- 3 -->
<g id="node4" class="node"><title>3</title>
<path fill="none" stroke="#56d89a" stroke-width="2" d="M164,-108C164,-108 88,-108 88,-108 82,-108 76,-102 76,-96 76,-96 76,-84 76,-84 76,-78 82,-72 88,-72 88,-72 164,-72 164,-72 170,-72 176,-78 176,-84 176,-84 176,-96 176,-96 176,-102 170,-108 164,-108"/>
<text text-anchor="middle" x="126" y="-87.5" font-family="sans" font-size="10.00">ReportingFindings</text>
</g>
<!-- 5 -->
<g id="node6" class="node"><title>5</title>
<path fill="none" stroke="#56d8d8" stroke-width="2" d="M141,-36C141,-36 111,-36 111,-36 105,-36 99,-30 99,-24 99,-24 99,-12 99,-12 99,-6 105,-0 111,-0 111,-0 141,-0 141,-0 147,-0 153,-6 153,-12 153,-12 153,-24 153,-24 153,-30 147,-36 141,-36"/>
<text text-anchor="middle" x="126" y="-15.5" font-family="sans" font-size="10.00">all</text>
</g>
<!-- 3&#45;&gt;5 -->
<g id="edge6" class="edge"><title>3&#45;&gt;5</title>
<path fill="none" stroke="grey" stroke-width="2" d="M126,-71.6966C126,-63.9827 126,-54.7125 126,-46.1124"/>
<polygon fill="grey" stroke="grey" stroke-width="2" points="129.5,-46.1043 126,-36.1043 122.5,-46.1044 129.5,-46.1043"/>
</g>
<!-- 4 -->
<g id="node5" class="node"><title>4</title>
<path fill="none" stroke="#d6d856" stroke-width="2" d="M205.5,-180C205.5,-180 46.5,-180 46.5,-180 40.5,-180 34.5,-174 34.5,-168 34.5,-168 34.5,-156 34.5,-156 34.5,-150 40.5,-144 46.5,-144 46.5,-144 205.5,-144 205.5,-144 211.5,-144 217.5,-150 217.5,-156 217.5,-156 217.5,-168 217.5,-168 217.5,-174 211.5,-180 205.5,-180"/>
<text text-anchor="middle" x="126" y="-159.5" font-family="sans" font-size="10.00">MergeScientificNameFilesToOneFile</text>
</g>
<!-- 4&#45;&gt;3 -->
<g id="edge4" class="edge"><title>4&#45;&gt;3</title>
<path fill="none" stroke="grey" stroke-width="2" d="M126,-143.697C126,-135.983 126,-126.712 126,-118.112"/>
<polygon fill="grey" stroke="grey" stroke-width="2" points="129.5,-118.104 126,-108.104 122.5,-118.104 129.5,-118.104"/>
</g>
<!-- 6 -->
<g id="node7" class="node"><title>6</title>
<path fill="none" stroke="#d89556" stroke-width="2" d="M163,-540C163,-540 89,-540 89,-540 83,-540 77,-534 77,-528 77,-528 77,-516 77,-516 77,-510 83,-504 89,-504 89,-504 163,-504 163,-504 169,-504 175,-510 175,-516 175,-516 175,-528 175,-528 175,-534 169,-540 163,-540"/>
<text text-anchor="middle" x="126" y="-519.5" font-family="sans" font-size="10.00">MapAgainstIndex</text>
</g>
<!-- 6&#45;&gt;1 -->
<g id="edge2" class="edge"><title>6&#45;&gt;1</title>
<path fill="none" stroke="grey" stroke-width="2" d="M126,-503.697C126,-495.983 126,-486.712 126,-478.112"/>
<polygon fill="grey" stroke="grey" stroke-width="2" points="129.5,-478.104 126,-468.104 122.5,-478.104 129.5,-478.104"/>
</g>
<!-- 7&#45;&gt;4 -->
<g id="edge5" class="edge"><title>7&#45;&gt;4</title>
<path fill="none" stroke="grey" stroke-width="2" d="M126,-215.697C126,-207.983 126,-198.712 126,-190.112"/>
<polygon fill="grey" stroke="grey" stroke-width="2" points="129.5,-190.104 126,-180.104 122.5,-190.104 129.5,-190.104"/>
</g>
</g>
</svg>
