<?xml version="1.0" encoding="UTF-8" standalone="no"?>
<!DOCTYPE svg PUBLIC "-//W3C//DTD SVG 1.1//EN"
 "http://www.w3.org/Graphics/SVG/1.1/DTD/svg11.dtd">
<!-- Generated by graphviz version 2.38.0 (20140413.2041)
 -->
<!-- Title: snakemake_dag Pages: 1 -->
<svg width="434pt" height="404pt"
 viewBox="0.00 0.00 434.00 404.00" xmlns="http://www.w3.org/2000/svg" xmlns:xlink="http://www.w3.org/1999/xlink">
<g id="graph0" class="graph" transform="scale(1 1) rotate(0) translate(4 400)">
<title>snakemake_dag</title>
<polygon fill="white" stroke="none" points="-4,4 -4,-400 430,-400 430,4 -4,4"/>
<!-- 0 -->
<g id="node1" class="node"><title>0</title>
<path fill="none" stroke="#56a2d8" stroke-width="2" stroke-dasharray="5,2" d="M357.5,-324C357.5,-324 296.5,-324 296.5,-324 290.5,-324 284.5,-318 284.5,-312 284.5,-312 284.5,-300 284.5,-300 284.5,-294 290.5,-288 296.5,-288 296.5,-288 357.5,-288 357.5,-288 363.5,-288 369.5,-294 369.5,-300 369.5,-300 369.5,-312 369.5,-312 369.5,-318 363.5,-324 357.5,-324"/>
<text text-anchor="middle" x="327" y="-303.5" font-family="sans" font-size="10.00">samtools_sort</text>
</g>
<!-- 3 -->
<g id="node4" class="node"><title>3</title>
<path fill="none" stroke="#d8a456" stroke-width="2" stroke-dasharray="5,2" d="M220.5,-180C220.5,-180 169.5,-180 169.5,-180 163.5,-180 157.5,-174 157.5,-168 157.5,-168 157.5,-156 157.5,-156 157.5,-150 163.5,-144 169.5,-144 169.5,-144 220.5,-144 220.5,-144 226.5,-144 232.5,-150 232.5,-156 232.5,-156 232.5,-168 232.5,-168 232.5,-174 226.5,-180 220.5,-180"/>
<text text-anchor="middle" x="195" y="-159.5" font-family="sans" font-size="10.00">bcftools_call</text>
</g>
<!-- 0&#45;&gt;3 -->
<g id="edge4" class="edge"><title>0&#45;&gt;3</title>
<path fill="none" stroke="grey" stroke-width="2" d="M322.739,-287.816C317.217,-268.463 305.977,-236.981 287,-216 274.597,-202.286 257.788,-191.182 241.93,-182.748"/>
<polygon fill="grey" stroke="grey" stroke-width="2" points="243.246,-179.491 232.744,-178.091 240.081,-185.735 243.246,-179.491"/>
</g>
<!-- 6 -->
<g id="node7" class="node"><title>6</title>
<path fill="none" stroke="#56d87b" stroke-width="2" stroke-dasharray="5,2" d="M414,-252C414,-252 346,-252 346,-252 340,-252 334,-246 334,-240 334,-240 334,-228 334,-228 334,-222 340,-216 346,-216 346,-216 414,-216 414,-216 420,-216 426,-222 426,-228 426,-228 426,-240 426,-240 426,-246 420,-252 414,-252"/>
<text text-anchor="middle" x="380" y="-231.5" font-family="sans" font-size="10.00">samtools_index</text>
</g>
<!-- 0&#45;&gt;6 -->
<g id="edge11" class="edge"><title>0&#45;&gt;6</title>
<path fill="none" stroke="grey" stroke-width="2" d="M340.101,-287.697C346.391,-279.389 354.047,-269.277 360.965,-260.141"/>
<polygon fill="grey" stroke="grey" stroke-width="2" points="363.804,-262.19 367.05,-252.104 358.223,-257.964 363.804,-262.19"/>
</g>
<!-- 1 -->
<g id="node2" class="node"><title>1</title>
<path fill="none" stroke="#d85656" stroke-width="2" stroke-dasharray="5,2" d="M101.5,-396C101.5,-396 60.5,-396 60.5,-396 54.5,-396 48.5,-390 48.5,-384 48.5,-384 48.5,-372 48.5,-372 48.5,-366 54.5,-360 60.5,-360 60.5,-360 101.5,-360 101.5,-360 107.5,-360 113.5,-366 113.5,-372 113.5,-372 113.5,-384 113.5,-384 113.5,-390 107.5,-396 101.5,-396"/>
<text text-anchor="middle" x="81" y="-381" font-family="sans" font-size="10.00">bwa_map</text>
<text text-anchor="middle" x="81" y="-370" font-family="sans" font-size="10.00">sample: B</text>
</g>
<!-- 4 -->
<g id="node5" class="node"><title>4</title>
<path fill="none" stroke="#56a2d8" stroke-width="2" stroke-dasharray="5,2" d="M111.5,-324C111.5,-324 50.5,-324 50.5,-324 44.5,-324 38.5,-318 38.5,-312 38.5,-312 38.5,-300 38.5,-300 38.5,-294 44.5,-288 50.5,-288 50.5,-288 111.5,-288 111.5,-288 117.5,-288 123.5,-294 123.5,-300 123.5,-300 123.5,-312 123.5,-312 123.5,-318 117.5,-324 111.5,-324"/>
<text text-anchor="middle" x="81" y="-303.5" font-family="sans" font-size="10.00">samtools_sort</text>
</g>
<!-- 1&#45;&gt;4 -->
<g id="edge9" class="edge"><title>1&#45;&gt;4</title>
<path fill="none" stroke="grey" stroke-width="2" d="M81,-359.697C81,-351.983 81,-342.712 81,-334.112"/>
<polygon fill="grey" stroke="grey" stroke-width="2" points="84.5001,-334.104 81,-324.104 77.5001,-334.104 84.5001,-334.104"/>
</g>
<!-- 2 -->
<g id="node3" class="node"><title>2</title>
<path fill="none" stroke="#56d87b" stroke-width="2" stroke-dasharray="5,2" d="M80,-252C80,-252 12,-252 12,-252 6,-252 0,-246 0,-240 0,-240 0,-228 0,-228 0,-222 6,-216 12,-216 12,-216 80,-216 80,-216 86,-216 92,-222 92,-228 92,-228 92,-240 92,-240 92,-246 86,-252 80,-252"/>
<text text-anchor="middle" x="46" y="-231.5" font-family="sans" font-size="10.00">samtools_index</text>
</g>
<!-- 2&#45;&gt;3 -->
<g id="edge6" class="edge"><title>2&#45;&gt;3</title>
<path fill="none" stroke="grey" stroke-width="2" d="M82.4495,-215.876C102.638,-206.392 127.921,-194.513 149.408,-184.419"/>
<polygon fill="grey" stroke="grey" stroke-width="2" points="151.106,-187.488 158.669,-180.068 148.13,-181.153 151.106,-187.488"/>
</g>
<!-- 9 -->
<g id="node10" class="node"><title>9</title>
<path fill="none" stroke="#56d8c9" stroke-width="2" stroke-dasharray="5,2" d="M210,-108C210,-108 180,-108 180,-108 174,-108 168,-102 168,-96 168,-96 168,-84 168,-84 168,-78 174,-72 180,-72 180,-72 210,-72 210,-72 216,-72 222,-78 222,-84 222,-84 222,-96 222,-96 222,-102 216,-108 210,-108"/>
<text text-anchor="middle" x="195" y="-87.5" font-family="sans" font-size="10.00">report</text>
</g>
<!-- 3&#45;&gt;9 -->
<g id="edge14" class="edge"><title>3&#45;&gt;9</title>
<path fill="none" stroke="grey" stroke-width="2" d="M195,-143.697C195,-135.983 195,-126.712 195,-118.112"/>
<polygon fill="grey" stroke="grey" stroke-width="2" points="198.5,-118.104 195,-108.104 191.5,-118.104 198.5,-118.104"/>
</g>
<!-- 4&#45;&gt;2 -->
<g id="edge2" class="edge"><title>4&#45;&gt;2</title>
<path fill="none" stroke="grey" stroke-width="2" d="M72.3483,-287.697C68.3642,-279.728 63.5498,-270.1 59.1321,-261.264"/>
<polygon fill="grey" stroke="grey" stroke-width="2" points="62.1549,-259.483 54.5522,-252.104 55.8939,-262.614 62.1549,-259.483"/>
</g>
<!-- 4&#45;&gt;3 -->
<g id="edge7" class="edge"><title>4&#45;&gt;3</title>
<path fill="none" stroke="grey" stroke-width="2" d="M94.7511,-287.871C114.694,-263.031 151.771,-216.846 174.816,-188.142"/>
<polygon fill="grey" stroke="grey" stroke-width="2" points="177.669,-190.178 181.2,-180.189 172.211,-185.796 177.669,-190.178"/>
</g>
<!-- 5 -->
<g id="node6" class="node"><title>5</title>
<path fill="none" stroke="#c6d856" stroke-width="2" stroke-dasharray="5,2" d="M210,-36C210,-36 180,-36 180,-36 174,-36 168,-30 168,-24 168,-24 168,-12 168,-12 168,-6 174,-0 180,-0 180,-0 210,-0 210,-0 216,-0 222,-6 222,-12 222,-12 222,-24 222,-24 222,-30 216,-36 210,-36"/>
<text text-anchor="middle" x="195" y="-15.5" font-family="sans" font-size="10.00">all</text>
</g>
<!-- 6&#45;&gt;3 -->
<g id="edge8" class="edge"><title>6&#45;&gt;3</title>
<path fill="none" stroke="grey" stroke-width="2" d="M334.744,-215.876C306.707,-205.268 270.755,-191.664 242.338,-180.912"/>
<polygon fill="grey" stroke="grey" stroke-width="2" points="243.218,-177.503 232.626,-177.237 240.741,-184.05 243.218,-177.503"/>
</g>
<!-- 7 -->
<g id="node8" class="node"><title>7</title>
<path fill="none" stroke="#56a2d8" stroke-width="2" stroke-dasharray="5,2" d="M241.5,-324C241.5,-324 180.5,-324 180.5,-324 174.5,-324 168.5,-318 168.5,-312 168.5,-312 168.5,-300 168.5,-300 168.5,-294 174.5,-288 180.5,-288 180.5,-288 241.5,-288 241.5,-288 247.5,-288 253.5,-294 253.5,-300 253.5,-300 253.5,-312 253.5,-312 253.5,-318 247.5,-324 241.5,-324"/>
<text text-anchor="middle" x="211" y="-303.5" font-family="sans" font-size="10.00">samtools_sort</text>
</g>
<!-- 7&#45;&gt;3 -->
<g id="edge3" class="edge"><title>7&#45;&gt;3</title>
<path fill="none" stroke="grey" stroke-width="2" d="M196.245,-287.634C188.91,-277.849 180.814,-265.008 177,-252 170.966,-231.418 176.43,-207.575 182.874,-189.751"/>
<polygon fill="grey" stroke="grey" stroke-width="2" points="186.198,-190.862 186.595,-180.274 179.683,-188.303 186.198,-190.862"/>
</g>
<!-- 8 -->
<g id="node9" class="node"><title>8</title>
<path fill="none" stroke="#56d87b" stroke-width="2" stroke-dasharray="5,2" d="M266,-252C266,-252 198,-252 198,-252 192,-252 186,-246 186,-240 186,-240 186,-228 186,-228 186,-222 192,-216 198,-216 198,-216 266,-216 266,-216 272,-216 278,-222 278,-228 278,-228 278,-240 278,-240 278,-246 272,-252 266,-252"/>
<text text-anchor="middle" x="232" y="-231.5" font-family="sans" font-size="10.00">samtools_index</text>
</g>
<!-- 7&#45;&gt;8 -->
<g id="edge13" class="edge"><title>7&#45;&gt;8</title>
<path fill="none" stroke="grey" stroke-width="2" d="M216.191,-287.697C218.531,-279.898 221.347,-270.509 223.951,-261.829"/>
<polygon fill="grey" stroke="grey" stroke-width="2" points="227.348,-262.688 226.869,-252.104 220.643,-260.677 227.348,-262.688"/>
</g>
<!-- 8&#45;&gt;3 -->
<g id="edge5" class="edge"><title>8&#45;&gt;3</title>
<path fill="none" stroke="grey" stroke-width="2" d="M222.854,-215.697C218.597,-207.644 213.444,-197.894 208.734,-188.982"/>
<polygon fill="grey" stroke="grey" stroke-width="2" points="211.808,-187.31 204.041,-180.104 205.62,-190.581 211.808,-187.31"/>
</g>
<!-- 9&#45;&gt;5 -->
<g id="edge10" class="edge"><title>9&#45;&gt;5</title>
<path fill="none" stroke="grey" stroke-width="2" d="M195,-71.6966C195,-63.9827 195,-54.7125 195,-46.1124"/>
<polygon fill="grey" stroke="grey" stroke-width="2" points="198.5,-46.1043 195,-36.1043 191.5,-46.1044 198.5,-46.1043"/>
</g>
<!-- 10 -->
<g id="node11" class="node"><title>10</title>
<path fill="none" stroke="#d85656" stroke-width="2" stroke-dasharray="5,2" d="M231.5,-396C231.5,-396 190.5,-396 190.5,-396 184.5,-396 178.5,-390 178.5,-384 178.5,-384 178.5,-372 178.5,-372 178.5,-366 184.5,-360 190.5,-360 190.5,-360 231.5,-360 231.5,-360 237.5,-360 243.5,-366 243.5,-372 243.5,-372 243.5,-384 243.5,-384 243.5,-390 237.5,-396 231.5,-396"/>
<text text-anchor="middle" x="211" y="-381" font-family="sans" font-size="10.00">bwa_map</text>
<text text-anchor="middle" x="211" y="-370" font-family="sans" font-size="10.00">sample: C</text>
</g>
<!-- 10&#45;&gt;7 -->
<g id="edge12" class="edge"><title>10&#45;&gt;7</title>
<path fill="none" stroke="grey" stroke-width="2" d="M211,-359.697C211,-351.983 211,-342.712 211,-334.112"/>
<polygon fill="grey" stroke="grey" stroke-width="2" points="214.5,-334.104 211,-324.104 207.5,-334.104 214.5,-334.104"/>
</g>
<!-- 11 -->
<g id="node12" class="node"><title>11</title>
<path fill="none" stroke="#d85656" stroke-width="2" stroke-dasharray="5,2" d="M347.5,-396C347.5,-396 306.5,-396 306.5,-396 300.5,-396 294.5,-390 294.5,-384 294.5,-384 294.5,-372 294.5,-372 294.5,-366 300.5,-360 306.5,-360 306.5,-360 347.5,-360 347.5,-360 353.5,-360 359.5,-366 359.5,-372 359.5,-372 359.5,-384 359.5,-384 359.5,-390 353.5,-396 347.5,-396"/>
<text text-anchor="middle" x="327" y="-381" font-family="sans" font-size="10.00">bwa_map</text>
<text text-anchor="middle" x="327" y="-370" font-family="sans" font-size="10.00">sample: A</text>
</g>
<!-- 11&#45;&gt;0 -->
<g id="edge1" class="edge"><title>11&#45;&gt;0</title>
<path fill="none" stroke="grey" stroke-width="2" d="M327,-359.697C327,-351.983 327,-342.712 327,-334.112"/>
<polygon fill="grey" stroke="grey" stroke-width="2" points="330.5,-334.104 327,-324.104 323.5,-334.104 330.5,-334.104"/>
</g>
</g>
</svg>
