Building DAG of jobs...
Using shell: /bin/bash
Job counts:
	count	jobs
	1	report
	1
Error in rule report:
    jobid: 0
    output: out.html

RuleException:
WorkflowError in line 72 of /homes/rkooistra/Desktop/SNAKEmake/Dataprocessing/snakemake/Tutorial3/SnakefileWC03DataPaths:
Python 3 package docutils needs to be installed to use the report function.
  File "/homes/rkooistra/Desktop/SNAKEmake/Dataprocessing/snakemake/Tutorial3/SnakefileWC03DataPaths", line 72, in __rule_report
  File "/usr/lib/python3.5/concurrent/futures/thread.py", line 55, in run
Shutting down, this might take some time.
Exiting because a job execution failed. Look above for error message
Complete log: /homes/rkooistra/Desktop/SNAKEmake/Dataprocessing/snakemake/Tutorial3/.snakemake/log/2018-02-23T091404.810433.snakemake.log
