Building DAG of jobs...
Using shell: /bin/bash
Provided cores: 1
Rules claiming more threads will be scaled down.
Job counts:
	count	jobs
	1	all
	1

rule all:
    input: bioinf.nl/~fennaf/snakemake/test.txt
    jobid: 0

Will exit after finishing currently running jobs.
Shutting down, this might take some time.
Exiting because a job execution failed. Look above for error message
Complete log: /homes/rkooistra/Desktop/SNAKEmake/Dataprocessing/snakemake/Tutorial3/.snakemake/log/2018-02-22T130548.304896.snakemake.log
