<?xml version="1.0" encoding="UTF-8" standalone="no"?>
<!DOCTYPE svg PUBLIC "-//W3C//DTD SVG 1.1//EN"
 "http://www.w3.org/Graphics/SVG/1.1/DTD/svg11.dtd">
<!-- Generated by graphviz version 2.38.0 (20140413.2041)
 -->
<!-- Title: snakemake_dag Pages: 1 -->
<svg width="347pt" height="188pt"
 viewBox="0.00 0.00 347.00 188.00" xmlns="http://www.w3.org/2000/svg" xmlns:xlink="http://www.w3.org/1999/xlink">
<g id="graph0" class="graph" transform="scale(1 1) rotate(0) translate(4 184)">
<title>snakemake_dag</title>
<polygon fill="white" stroke="none" points="-4,4 -4,-184 343,-184 343,4 -4,4"/>
<!-- 0 -->
<g id="node1" class="node"><title>0</title>
<path fill="none" stroke="#56d8d8" stroke-width="2" stroke-dasharray="5,2" d="M89,-180C89,-180 12,-180 12,-180 6,-180 0,-174 0,-168 0,-168 0,-156 0,-156 0,-150 6,-144 12,-144 12,-144 89,-144 89,-144 95,-144 101,-150 101,-156 101,-156 101,-168 101,-168 101,-174 95,-180 89,-180"/>
<text text-anchor="middle" x="50.5" y="-165" font-family="sans" font-size="10.00">quantify_genes</text>
<text text-anchor="middle" x="50.5" y="-154" font-family="sans" font-size="10.00">sample: Sample2</text>
</g>
<!-- 1 -->
<g id="node2" class="node"><title>1</title>
<path fill="none" stroke="#d6d856" stroke-width="2" stroke-dasharray="5,2" d="M202.5,-108C202.5,-108 136.5,-108 136.5,-108 130.5,-108 124.5,-102 124.5,-96 124.5,-96 124.5,-84 124.5,-84 124.5,-78 130.5,-72 136.5,-72 136.5,-72 202.5,-72 202.5,-72 208.5,-72 214.5,-78 214.5,-84 214.5,-84 214.5,-96 214.5,-96 214.5,-102 208.5,-108 202.5,-108"/>
<text text-anchor="middle" x="169.5" y="-87.5" font-family="sans" font-size="10.00">collate_outputs</text>
</g>
<!-- 0&#45;&gt;1 -->
<g id="edge1" class="edge"><title>0&#45;&gt;1</title>
<path fill="none" stroke="grey" stroke-width="2" d="M79.6107,-143.876C95.1699,-134.724 114.519,-123.342 131.276,-113.485"/>
<polygon fill="grey" stroke="grey" stroke-width="2" points="133.433,-116.277 140.277,-108.19 129.883,-110.243 133.433,-116.277"/>
</g>
<!-- 2 -->
<g id="node3" class="node"><title>2</title>
<path fill="none" stroke="#59d856" stroke-width="2" stroke-dasharray="5,2" d="M184.5,-36C184.5,-36 154.5,-36 154.5,-36 148.5,-36 142.5,-30 142.5,-24 142.5,-24 142.5,-12 142.5,-12 142.5,-6 148.5,-0 154.5,-0 154.5,-0 184.5,-0 184.5,-0 190.5,-0 196.5,-6 196.5,-12 196.5,-12 196.5,-24 196.5,-24 196.5,-30 190.5,-36 184.5,-36"/>
<text text-anchor="middle" x="169.5" y="-15.5" font-family="sans" font-size="10.00">all</text>
</g>
<!-- 1&#45;&gt;2 -->
<g id="edge4" class="edge"><title>1&#45;&gt;2</title>
<path fill="none" stroke="grey" stroke-width="2" d="M169.5,-71.6966C169.5,-63.9827 169.5,-54.7125 169.5,-46.1124"/>
<polygon fill="grey" stroke="grey" stroke-width="2" points="173,-46.1043 169.5,-36.1043 166,-46.1044 173,-46.1043"/>
</g>
<!-- 3 -->
<g id="node4" class="node"><title>3</title>
<path fill="none" stroke="#56d8d8" stroke-width="2" stroke-dasharray="5,2" d="M208,-180C208,-180 131,-180 131,-180 125,-180 119,-174 119,-168 119,-168 119,-156 119,-156 119,-150 125,-144 131,-144 131,-144 208,-144 208,-144 214,-144 220,-150 220,-156 220,-156 220,-168 220,-168 220,-174 214,-180 208,-180"/>
<text text-anchor="middle" x="169.5" y="-165" font-family="sans" font-size="10.00">quantify_genes</text>
<text text-anchor="middle" x="169.5" y="-154" font-family="sans" font-size="10.00">sample: Sample3</text>
</g>
<!-- 3&#45;&gt;1 -->
<g id="edge3" class="edge"><title>3&#45;&gt;1</title>
<path fill="none" stroke="grey" stroke-width="2" d="M169.5,-143.697C169.5,-135.983 169.5,-126.712 169.5,-118.112"/>
<polygon fill="grey" stroke="grey" stroke-width="2" points="173,-118.104 169.5,-108.104 166,-118.104 173,-118.104"/>
</g>
<!-- 4 -->
<g id="node5" class="node"><title>4</title>
<path fill="none" stroke="#56d8d8" stroke-width="2" stroke-dasharray="5,2" d="M327,-180C327,-180 250,-180 250,-180 244,-180 238,-174 238,-168 238,-168 238,-156 238,-156 238,-150 244,-144 250,-144 250,-144 327,-144 327,-144 333,-144 339,-150 339,-156 339,-156 339,-168 339,-168 339,-174 333,-180 327,-180"/>
<text text-anchor="middle" x="288.5" y="-165" font-family="sans" font-size="10.00">quantify_genes</text>
<text text-anchor="middle" x="288.5" y="-154" font-family="sans" font-size="10.00">sample: Sample1</text>
</g>
<!-- 4&#45;&gt;1 -->
<g id="edge2" class="edge"><title>4&#45;&gt;1</title>
<path fill="none" stroke="grey" stroke-width="2" d="M259.389,-143.876C243.83,-134.724 224.481,-123.342 207.724,-113.485"/>
<polygon fill="grey" stroke="grey" stroke-width="2" points="209.117,-110.243 198.723,-108.19 205.567,-116.277 209.117,-110.243"/>
</g>
</g>
</svg>
